<?xml version="1.0" encoding="UTF-8" standalone="no"?>
<!-- Created with Inkscape (http://www.inkscape.org/) -->
<svg
   xmlns:dc="http://purl.org/dc/elements/1.1/"
   xmlns:cc="http://creativecommons.org/ns#"
   xmlns:rdf="http://www.w3.org/1999/02/22-rdf-syntax-ns#"
   xmlns:svg="http://www.w3.org/2000/svg"
   xmlns="http://www.w3.org/2000/svg"
   xmlns:sodipodi="http://sodipodi.sourceforge.net/DTD/sodipodi-0.dtd"
   xmlns:inkscape="http://www.inkscape.org/namespaces/inkscape"
   width="310"
   height="55"
   id="svg2411"
   sodipodi:version="0.32"
   inkscape:version="0.46"
   sodipodi:docname="logo.svg"
   inkscape:output_extension="org.inkscape.output.svg.inkscape"
   version="1.0"
   inkscape:export-filename="/home/ryan/Workspace/proactiv/templates/proactivity/logo.png"
   inkscape:export-xdpi="90"
   inkscape:export-ydpi="90">
  <defs
     id="defs2413">
    <inkscape:perspective
       sodipodi:type="inkscape:persp3d"
       inkscape:vp_x="0 : 526.18109 : 1"
       inkscape:vp_y="0 : 1000 : 0"
       inkscape:vp_z="744.09448 : 526.18109 : 1"
       inkscape:persp3d-origin="372.04724 : 350.78739 : 1"
       id="perspective2419" />
  </defs>
  <sodipodi:namedview
     id="base"
     pagecolor="#ffffff"
     bordercolor="#666666"
     borderopacity="1.0"
     gridtolerance="10000"
     guidetolerance="10"
     objecttolerance="10"
     inkscape:pageopacity="1"
     inkscape:pageshadow="2"
     inkscape:zoom="3.959798"
     inkscape:cx="181.07004"
     inkscape:cy="16.491833"
     inkscape:document-units="px"
     inkscape:current-layer="layer1"
     showgrid="false"
     inkscape:window-width="1680"
     inkscape:window-height="975"
     inkscape:window-x="0"
     inkscape:window-y="25" />
  <metadata
     id="metadata2416">
    <rdf:RDF>
      <cc:Work
         rdf:about="">
        <dc:format>image/svg+xml</dc:format>
        <dc:type
           rdf:resource="http://purl.org/dc/dcmitype/StillImage" />
      </cc:Work>
    </rdf:RDF>
  </metadata>
  <g
     inkscape:label="Layer 1"
     inkscape:groupmode="layer"
     id="layer1">
    <g
       id="g2746"
       transform="matrix(0.973292,0,0,0.973292,-359.66181,-335.4253)">
      <g
         transform="matrix(0.5692428,0,0,0.5692428,-54.285212,-267.81706)"
         style="fill:#209de6;fill-opacity:1"
         id="g5480" />
      <path
         style="font-size:13.30000114px;font-style:normal;font-variant:normal;font-weight:normal;font-stretch:normal;text-align:start;line-height:125%;writing-mode:lr-tb;text-anchor:start;fill:#000000;fill-opacity:1;stroke:none;stroke-width:1px;stroke-linecap:butt;stroke-linejoin:miter;stroke-opacity:1;font-family:Arial;-inkscape-font-specification:Arial"
         d="M 504.28425,400.98306 L 504.28425,394.99546 L 503.25168,394.99546 L 503.25168,394.08628 L 504.28425,394.08628 L 504.28425,393.35245 C 504.28425,392.88921 504.32538,392.54502 504.40764,392.31988 C 504.52021,392.01683 504.71719,391.77222 504.99861,391.58604 C 505.28435,391.39556 505.68266,391.30031 506.19353,391.3003 C 506.52256,391.30031 506.88624,391.33927 507.28455,391.41719 L 507.1092,392.43677 C 506.86675,392.39349 506.63729,392.37184 506.42083,392.37183 C 506.06581,392.37184 505.8147,392.44761 505.66751,392.59913 C 505.5203,392.75066 505.4467,393.03424 505.4467,393.44986 L 505.4467,394.08628 L 506.79099,394.08628 L 506.79099,394.99546 L 505.4467,394.99546 L 505.4467,400.98306 L 504.28425,400.98306 M 515.90227,400.98306 L 515.90227,399.96998 C 515.36542,400.74927 514.63591,401.13892 513.71375,401.13892 C 513.30678,401.13892 512.92579,401.06099 512.57078,400.90513 C 512.22009,400.74927 511.95816,400.55445 511.78499,400.32066 C 511.61614,400.08254 511.49708,399.79247 511.42781,399.45045 C 511.38018,399.22099 511.35637,398.85732 511.35637,398.35943 L 511.35637,394.08628 L 512.52532,394.08628 L 512.52532,397.91133 C 512.52532,398.52179 512.54913,398.93308 512.59675,399.14522 C 512.67035,399.45261 512.82621,399.69506 513.06433,399.87256 C 513.30245,400.04574 513.59685,400.13233 513.94754,400.13233 C 514.29822,400.13233 514.62725,400.04358 514.93464,399.86607 C 515.24203,399.68424 515.4585,399.43962 515.58406,399.13223 C 515.71394,398.82052 515.77888,398.37026 515.77888,397.78145 L 515.77888,394.08628 L 516.94783,394.08628 L 516.94783,400.98306 L 515.90227,400.98306 M 522.47434,400.98306 L 522.47434,394.08628 L 523.52639,394.08628 L 523.52639,395.0669 C 524.03293,394.30926 524.76461,393.93043 525.72141,393.93043 C 526.13703,393.93043 526.51802,394.0062 526.86438,394.15772 C 527.21506,394.30493 527.47699,394.49975 527.65017,394.74219 C 527.82334,394.98465 527.94457,395.27255 528.01384,395.60591 C 528.05713,395.82239 528.07878,396.20121 528.07879,396.74239 L 528.07879,400.98306 L 526.90984,400.98306 L 526.90984,396.78785 C 526.90984,396.31162 526.86438,395.9566 526.77346,395.72281 C 526.68254,395.4847 526.52019,395.29637 526.2864,395.15782 C 526.05694,395.01495 525.78635,394.94352 525.47464,394.94351 C 524.97675,394.94352 524.54597,395.10154 524.1823,395.41758 C 523.82296,395.73364 523.64329,396.33326 523.64329,397.21646 L 523.64329,400.98306 L 522.47434,400.98306 M 545.44412,400.13233 C 545.01117,400.50033 544.59338,400.7601 544.19075,400.91163 C 543.79244,401.06316 543.36383,401.13892 542.90491,401.13892 C 542.14726,401.13892 541.56495,400.95492 541.15799,400.58692 C 540.75102,400.21459 540.54754,399.74052 540.54754,399.1647 C 540.54754,398.82701 540.6233,398.51962 540.77483,398.24254 C 540.93069,397.96113 541.13201,397.736 541.37879,397.56714 C 541.62989,397.3983 541.91131,397.27058 542.22303,397.18399 C 542.45248,397.12338 542.79884,397.06493 543.26209,397.00865 C 544.2059,396.89609 544.90077,396.76188 545.34671,396.60601 C 545.35103,396.44583 545.3532,396.34409 545.3532,396.30079 C 545.3532,395.82456 545.2428,395.48902 545.022,395.2942 C 544.72327,395.03011 544.2795,394.89806 543.6907,394.89805 C 543.14086,394.89806 542.7339,394.99547 542.4698,395.19029 C 542.21004,395.38079 542.01738,395.72065 541.89182,396.20987 L 540.74886,396.05401 C 540.85276,395.56479 541.02377,395.17081 541.26189,394.87208 C 541.50001,394.56902 541.8442,394.3374 542.29446,394.1772 C 542.74472,394.01269 543.26641,393.93043 543.85955,393.93043 C 544.44835,393.93043 544.92675,393.9997 545.29475,394.13824 C 545.66275,394.27679 545.93334,394.45213 546.10652,394.66426 C 546.27969,394.87208 546.40092,395.13618 546.47019,395.45655 C 546.50915,395.65571 546.52863,396.01505 546.52864,396.53458 L 546.52864,398.09317 C 546.52863,399.17986 546.55245,399.86824 546.60008,400.15831 C 546.65202,400.44405 546.7516,400.71897 546.89881,400.98306 L 545.67791,400.98306 C 545.55668,400.74062 545.47875,400.45704 545.44412,400.13233 M 545.34671,397.52169 C 544.92242,397.69487 544.28599,397.84207 543.43743,397.96329 C 542.95686,398.03256 542.617,398.11049 542.41785,398.19708 C 542.21869,398.28367 542.065,398.41139 541.95677,398.58023 C 541.84853,398.74475 541.79441,398.92875 541.79441,399.13223 C 541.79441,399.44395 541.91131,399.70372 542.1451,399.91153 C 542.38321,400.11934 542.72957,400.22325 543.18416,400.22325 C 543.63442,400.22325 544.03489,400.12584 544.38557,399.93101 C 544.73625,399.73186 544.99385,399.46127 545.15838,399.11924 C 545.28393,398.85515 545.3467,398.4655 545.34671,397.9503 L 545.34671,397.52169 M 552.03568,400.98306 L 552.03568,394.08628 L 553.08773,394.08628 L 553.08773,395.0669 C 553.59427,394.30926 554.32594,393.93043 555.28275,393.93043 C 555.69837,393.93043 556.07936,394.0062 556.42571,394.15772 C 556.77639,394.30493 557.03832,394.49975 557.21151,394.74219 C 557.38468,394.98465 557.5059,395.27255 557.57518,395.60591 C 557.61847,395.82239 557.64011,396.20121 557.64012,396.74239 L 557.64012,400.98306 L 556.47117,400.98306 L 556.47117,396.78785 C 556.47117,396.31162 556.42571,395.9566 556.3348,395.72281 C 556.24387,395.4847 556.08152,395.29637 555.84774,395.15782 C 555.61827,395.01495 555.34768,394.94352 555.03597,394.94351 C 554.53808,394.94352 554.1073,395.10154 553.74363,395.41758 C 553.38429,395.73364 553.20462,396.33326 553.20462,397.21646 L 553.20462,400.98306 L 552.03568,400.98306 M 567.60213,400.98306 L 567.60213,400.11285 C 567.16485,400.7969 566.52193,401.13892 565.67337,401.13892 C 565.12353,401.13892 564.61699,400.98739 564.15374,400.68433 C 563.69482,400.38127 563.33764,399.95915 563.08221,399.41797 C 562.8311,398.87247 562.70555,398.24687 562.70555,397.54117 C 562.70555,396.85279 562.82028,396.22936 563.04974,395.67086 C 563.2792,395.10804 563.62338,394.67726 564.08231,394.37852 C 564.54122,394.0798 565.05426,393.93043 565.62142,393.93043 C 566.03704,393.93043 566.4072,394.01919 566.73191,394.19669 C 567.05662,394.36987 567.32071,394.59716 567.5242,394.87857 L 567.5242,391.46265 L 568.68665,391.46265 L 568.68665,400.98306 L 567.60213,400.98306 M 563.90696,397.54117 C 563.90696,398.42437 564.09313,399.08461 564.46546,399.52188 C 564.83779,399.95915 565.27722,400.17779 565.78377,400.17779 C 566.29464,400.17779 566.72758,399.96998 567.0826,399.55435 C 567.44194,399.1344 567.62161,398.49581 567.62161,397.63858 C 567.62161,396.69477 567.43977,396.00206 567.0761,395.56045 C 566.71243,395.11886 566.26433,394.89806 565.73182,394.89805 C 565.21228,394.89806 564.77718,395.1102 564.42649,395.53448 C 564.08014,395.95877 563.90696,396.62766 563.90696,397.54117 M 581.87626,400.98306 L 581.87626,394.99546 L 580.84369,394.99546 L 580.84369,394.08628 L 581.87626,394.08628 L 581.87626,393.35245 C 581.87625,392.88921 581.91738,392.54502 581.99964,392.31988 C 582.11221,392.01683 582.3092,391.77222 582.59061,391.58604 C 582.87635,391.39556 583.27466,391.30031 583.78553,391.3003 C 584.11457,391.30031 584.47824,391.33927 584.87655,391.41719 L 584.70121,392.43677 C 584.45876,392.39349 584.2293,392.37184 584.01283,392.37183 C 583.65781,392.37184 583.40671,392.44761 583.25951,392.59913 C 583.11231,392.75066 583.0387,393.03424 583.03871,393.44986 L 583.03871,394.08628 L 584.38299,394.08628 L 584.38299,394.99546 L 583.03871,394.99546 L 583.03871,400.98306 L 581.87626,400.98306 M 588.98084,392.80694 L 588.98084,391.46265 L 590.14979,391.46265 L 590.14979,392.80694 L 588.98084,392.80694 M 588.98084,400.98306 L 588.98084,394.08628 L 590.14979,394.08628 L 590.14979,400.98306 L 588.98084,400.98306 M 598.17655,399.93751 L 598.3454,400.97007 C 598.01636,401.03935 597.72196,401.07398 597.46219,401.07398 C 597.03791,401.07398 596.70887,401.00687 596.47508,400.87266 C 596.24129,400.73845 596.07678,400.56311 595.98153,400.34664 C 595.88628,400.12584 595.83866,399.66475 595.83866,398.96338 L 595.83866,394.99546 L 594.98143,394.99546 L 594.98143,394.08628 L 595.83866,394.08628 L 595.83866,392.37833 L 597.00111,391.67696 L 597.00111,394.08628 L 598.17655,394.08628 L 598.17655,394.99546 L 597.00111,394.99546 L 597.00111,399.02833 C 597.00111,399.36169 597.02059,399.576 597.05956,399.67125 C 597.10285,399.76649 597.16995,399.84226 597.26088,399.89854 C 597.35612,399.95482 597.49033,399.98297 597.66351,399.98297 C 597.79339,399.98297 597.9644,399.96781 598.17655,399.93751 M 603.00169,400.98306 L 603.00169,394.08628 L 604.05374,394.08628 L 604.05374,395.0669 C 604.56029,394.30926 605.29196,393.93043 606.24876,393.93043 C 606.66438,393.93043 607.04537,394.0062 607.39173,394.15772 C 607.74241,394.30493 608.00434,394.49975 608.17752,394.74219 C 608.3507,394.98465 608.47192,395.27255 608.5412,395.60591 C 608.58448,395.82239 608.60613,396.20121 608.60614,396.74239 L 608.60614,400.98306 L 607.43719,400.98306 L 607.43719,396.78785 C 607.43719,396.31162 607.39173,395.9566 607.30082,395.72281 C 607.20989,395.4847 607.04754,395.29637 606.81375,395.15782 C 606.58429,395.01495 606.3137,394.94352 606.00199,394.94351 C 605.5041,394.94352 605.07332,395.10154 604.70965,395.41758 C 604.35031,395.73364 604.17064,396.33326 604.17064,397.21646 L 604.17064,400.98306 L 603.00169,400.98306 M 618.81493,398.76207 L 620.02284,398.91143 C 619.83234,399.61713 619.47949,400.1648 618.96429,400.55445 C 618.44909,400.9441 617.79102,401.13892 616.99008,401.13892 C 615.98132,401.13892 615.18037,400.82937 614.58724,400.21026 C 613.99844,399.58682 613.70404,398.71445 613.70404,397.59312 C 613.70404,396.43284 614.00277,395.53232 614.60023,394.89156 C 615.19769,394.25081 615.97266,393.93043 616.92513,393.93043 C 617.8473,393.93043 618.60062,394.24432 619.1851,394.87208 C 619.76956,395.49985 620.0618,396.38305 620.0618,397.52169 C 620.0618,397.59096 620.05963,397.69487 620.05531,397.8334 L 614.91195,397.8334 C 614.95524,398.59106 615.16955,399.1712 615.55487,399.57383 C 615.94019,399.97647 616.42075,400.17779 616.99657,400.17779 C 617.42518,400.17779 617.79102,400.06523 618.09408,399.84009 C 618.39713,399.61497 618.63742,399.25562 618.81493,398.76207 M 614.97689,396.87227 L 618.82792,396.87227 C 618.77596,396.29213 618.62876,395.85703 618.38632,395.56695 C 618.01398,395.11669 617.53125,394.89156 616.93812,394.89156 C 616.40127,394.89156 615.94885,395.07124 615.58085,395.43057 C 615.21717,395.78992 615.01586,396.27049 614.97689,396.87227 M 624.7181,398.92442 L 625.87406,398.74258 C 625.939,399.20583 626.11867,399.56085 626.41307,399.80762 C 626.7118,400.0544 627.12742,400.17779 627.65994,400.17779 C 628.19679,400.17779 628.5951,400.06955 628.85487,399.85308 C 629.11463,399.63228 629.24451,399.37468 629.24451,399.08028 C 629.24451,398.81619 629.12978,398.60837 628.90033,398.45684 C 628.74013,398.35294 628.34183,398.22089 627.7054,398.0607 C 626.84817,397.84423 626.25288,397.65807 625.91951,397.5022 C 625.59048,397.34202 625.33937,397.12338 625.16619,396.84629 C 624.99735,396.56489 624.91292,396.25533 624.91292,395.91763 C 624.91292,395.61025 624.98219,395.32667 625.12074,395.0669 C 625.26361,394.80281 625.45626,394.58418 625.69871,394.41099 C 625.88055,394.27679 626.12733,394.16422 626.43905,394.0733 C 626.75509,393.97806 627.09279,393.93043 627.45213,393.93043 C 627.99331,393.93043 628.46738,394.00836 628.87435,394.16421 C 629.28564,394.32008 629.5887,394.53222 629.78353,394.80064 C 629.97835,395.06474 630.11256,395.41975 630.18617,395.86568 L 629.0432,396.02154 C 628.99124,395.66653 628.83971,395.38945 628.58861,395.19029 C 628.34183,394.99114 627.99114,394.89156 627.53656,394.89156 C 626.9997,394.89156 626.61655,394.98032 626.38709,395.15782 C 626.15763,395.33533 626.0429,395.54314 626.0429,395.78126 C 626.0429,395.93279 626.09053,396.06917 626.18577,396.19039 C 626.28102,396.31594 626.43038,396.41985 626.63387,396.50211 C 626.75076,396.5454 627.09495,396.64498 627.66644,396.80084 C 628.49336,397.02164 629.06917,397.20348 629.39388,397.34634 C 629.72291,397.48489 629.98051,397.68837 630.16668,397.95679 C 630.35284,398.22522 630.44592,398.55859 630.44593,398.95689 C 630.44592,399.34654 630.3312,399.71454 630.10174,400.06089 C 629.87661,400.40292 629.54973,400.66918 629.12113,400.85967 C 628.69251,401.04584 628.20761,401.13892 627.66644,401.13892 C 626.77024,401.13892 626.0862,400.95276 625.61429,400.58043 C 625.14671,400.2081 624.84798,399.65609 624.7181,398.92442 M 635.05677,398.92442 L 636.21273,398.74258 C 636.27767,399.20583 636.45734,399.56085 636.75175,399.80762 C 637.05047,400.0544 637.4661,400.17779 637.99862,400.17779 C 638.53547,400.17779 638.93377,400.06955 639.19354,399.85308 C 639.4533,399.63228 639.58319,399.37468 639.58319,399.08028 C 639.58319,398.81619 639.46846,398.60837 639.239,398.45684 C 639.07881,398.35294 638.6805,398.22089 638.04408,398.0607 C 637.18685,397.84423 636.59156,397.65807 636.25819,397.5022 C 635.92915,397.34202 635.67805,397.12338 635.50487,396.84629 C 635.33602,396.56489 635.2516,396.25533 635.2516,395.91763 C 635.2516,395.61025 635.32087,395.32667 635.45941,395.0669 C 635.60228,394.80281 635.79494,394.58418 636.03739,394.41099 C 636.21922,394.27679 636.466,394.16422 636.77772,394.0733 C 637.09377,393.97806 637.43146,393.93043 637.79081,393.93043 C 638.33198,393.93043 638.80605,394.00836 639.21303,394.16421 C 639.62432,394.32008 639.92738,394.53222 640.12221,394.80064 C 640.31702,395.06474 640.45124,395.41975 640.52484,395.86568 L 639.38187,396.02154 C 639.32992,395.66653 639.17839,395.38945 638.92728,395.19029 C 638.6805,394.99114 638.32982,394.89156 637.87523,394.89156 C 637.33838,394.89156 636.95523,394.98032 636.72577,395.15782 C 636.49631,395.33533 636.38158,395.54314 636.38158,395.78126 C 636.38158,395.93279 636.4292,396.06917 636.52445,396.19039 C 636.6197,396.31594 636.76906,396.41985 636.97255,396.50211 C 637.08944,396.5454 637.43363,396.64498 638.00512,396.80084 C 638.83203,397.02164 639.40784,397.20348 639.73256,397.34634 C 640.06159,397.48489 640.31919,397.68837 640.50536,397.95679 C 640.69152,398.22522 640.7846,398.55859 640.78461,398.95689 C 640.7846,399.34654 640.66987,399.71454 640.44042,400.06089 C 640.21528,400.40292 639.88841,400.66918 639.4598,400.85967 C 639.03118,401.04584 638.54629,401.13892 638.00512,401.13892 C 637.10892,401.13892 636.42487,400.95276 635.95297,400.58043 C 635.48539,400.2081 635.18666,399.65609 635.05677,398.92442"
         id="text2378" />
      <g
         transform="matrix(0.5692428,0,0,0.5692428,313.59231,74.230182)"
         style="fill:#209de6;fill-opacity:1"
         id="g2412">
        <path
           style="font-size:17.26787758000000039px;font-style:normal;font-weight:normal;fill:#23aeff;stroke:none;stroke-width:1px;stroke-linecap:butt;stroke-linejoin:miter;stroke-opacity:1;font-family:Bitstream Vera Sans;fill-opacity:1"
           d="M 394.125,356.15625 C 393.25996,356.15628 392.46578,356.17139 391.71875,356.25 C 391.011,356.28935 390.32464,356.35889 389.65625,356.4375 C 388.08348,356.67343 386.68761,357.09775 385.46875,357.6875 L 385.65625,356.71875 L 377.03125,356.71875 L 369.53125,394.1875 L 378.03125,394.1875 L 380.40625,382.375 C 380.99603,382.68957 381.56646,383.00602 382.15625,383.28125 C 382.78532,383.51717 383.47168,383.71773 384.21875,383.875 C 385.55556,384.18955 386.75895,384.34375 387.78125,384.34375 C 391.75239,384.34374 395.24564,383.14036 398.3125,380.78125 C 401.61521,378.22555 403.72064,374.63959 404.625,370 C 405.41134,366.18614 404.77134,362.93174 402.6875,360.21875 C 400.64291,357.5058 397.78159,356.15628 394.125,356.15625 z M 390.5,363.46875 C 390.72793,363.45155 390.95159,363.46875 391.1875,363.46875 C 392.99611,363.46877 394.36883,364.01603 395.3125,365.15625 C 396.13817,366.37514 396.36191,367.99478 395.96875,370 C 395.45758,372.55572 394.47794,374.41421 393.0625,375.59375 C 391.80429,376.53739 390.30056,377.03126 388.53125,377.03125 C 386.80121,377.03124 385.47488,376.53741 384.53125,375.59375 C 383.43032,374.29624 383.11384,372.3531 383.625,369.71875 C 384.01818,367.71351 384.90509,366.15537 386.28125,365.09375 C 387.48537,364.13047 388.90452,363.58918 390.5,363.46875 z"
           transform="matrix(1.7567196,0,0,1.7567196,-550.89376,-130.40162)"
           id="path2547" />
        <path
           style="font-size:17.26787758000000039px;font-style:normal;font-weight:normal;fill:#23aeff;stroke:none;stroke-width:1px;stroke-linecap:butt;stroke-linejoin:miter;stroke-opacity:1;font-family:Bitstream Vera Sans;fill-opacity:1"
           d="M 208.31573,500.21477 C 206.86518,499.66225 205.58736,499.21329 204.48226,498.86788 C 203.44615,498.52257 202.51368,498.24629 201.68487,498.03902 C 200.02711,497.55557 198.19672,497.31382 196.19368,497.31377 C 194.53593,497.31382 192.74007,497.59011 190.80611,498.14263 C 190.04629,498.41896 189.2865,498.72979 188.52675,499.07509 C 187.76693,499.35143 187.00714,499.69679 186.24739,500.11117 L 186.97264,496.38131 L 171.53516,496.38131 L 161.17443,548.08133 L 176.30109,548.08133 L 181.48145,522.07591 C 182.24122,518.41515 183.89893,515.65229 186.4546,513.78733 C 188.59579,512.06057 190.90968,511.19718 193.39629,511.19714 C 194.08697,511.19718 195.0885,511.4044 196.4009,511.81879 C 197.9895,512.3714 199.3364,512.99304 200.44158,513.68372 L 208.31573,500.21477"
           id="text2507" />
        <path
           style="font-size:17.26787758000000039px;font-style:normal;font-weight:normal;fill:#23aeff;fill-opacity:1;stroke:none;stroke-width:1px;stroke-linecap:butt;stroke-linejoin:miter;stroke-opacity:1;font-family:Bitstream Vera Sans"
           d="M 301.9936,494.71607 C 298.47094,494.71611 295.36896,495.19063 292.60613,496.08851 C 289.91229,496.84836 287.46014,497.97263 285.24987,499.49215 C 283.38493,500.73551 281.51524,502.41572 279.65032,504.48782 C 277.44002,507.04354 275.88195,509.41425 274.98404,511.6245 L 288.10454,514.69876 C 288.58799,513.93899 289.02179,513.32996 289.36718,512.77734 C 289.78161,512.15573 290.17464,511.64052 290.52003,511.29511 C 291.00349,510.6735 291.4231,510.13173 291.83757,509.64819 C 292.32107,509.09566 292.79556,508.62116 293.21,508.27575 C 295.00583,506.61808 297.30929,505.8054 300.07219,505.80536 C 302.90411,505.66725 304.73303,506.47993 305.56194,508.27575 C 305.76913,508.82834 305.95855,509.46577 306.16581,510.08737 C 306.30389,510.91624 306.34463,511.64749 306.27561,512.33816 C 304.68693,512.89079 302.61362,513.51401 300.12709,514.20468 C 298.95283,514.48099 297.70638,514.7519 296.39406,515.02814 C 295.08167,515.30449 293.72722,515.61606 292.27675,515.9614 C 285.71492,516.99749 280.58038,519.26024 276.85055,522.71379 C 273.6042,525.75293 271.53089,529.4516 270.70203,533.80308 C 269.80409,538.29273 270.67166,542.0321 273.22732,545.00217 C 275.92109,547.83412 279.61972,549.22928 284.31661,549.22928 C 287.28666,549.22929 289.84685,548.91767 292.05716,548.29602 C 293.23133,547.95067 294.51851,547.51688 295.89998,547.03338 C 297.28138,546.48082 298.79873,545.74958 300.45647,544.78258 C 300.45642,545.12795 300.45644,545.43956 300.45647,545.71584 C 300.45642,545.99215 300.45644,546.2223 300.45647,546.4295 C 300.45642,546.77489 300.5786,547.31665 300.78586,548.07643 L 315.99246,548.07643 C 315.64704,546.55685 315.41689,545.3104 315.27879,544.3434 C 315.0715,543.10012 315.03081,541.70495 315.169,540.11629 C 315.16895,539.35651 315.20967,538.61112 315.27879,537.92039 C 315.3478,537.16061 315.46999,536.45596 315.60818,535.83429 C 316.02259,534.10754 316.29344,532.91596 316.43164,532.15616 C 316.56974,531.39641 316.59628,531.00333 316.59633,531.00331 L 319.61569,516.07119 C 320.23729,512.82488 320.5489,510.53558 320.54895,509.15411 C 320.61799,508.25625 320.53651,507.34794 320.32936,506.51903 C 320.19118,505.62114 319.96101,504.68632 319.61569,503.71926 C 318.99401,502.19973 318.26277,500.92673 317.3649,499.82154 C 316.46693,498.64738 315.32846,497.71253 314.01615,497.02177 C 311.04601,495.50227 307.03577,494.71612 301.9936,494.71607 z M 304.07971,523.42746 L 302.65237,530.67393 C 302.03069,531.29559 301.20385,531.95953 300.23688,532.65024 C 299.26983,533.27192 298.14556,533.97658 296.83324,534.73634 C 295.45181,535.49614 294.16459,536.07863 292.99041,536.49306 C 291.81617,536.83841 290.73261,537.10932 289.69656,537.31652 C 288.10791,537.73098 286.77999,537.41934 285.74395,536.38326 C 284.91507,535.34722 284.64419,534.06004 284.92048,532.54044 C 285.19678,531.15901 286.17232,529.87186 287.83005,528.69762 C 289.41867,527.45435 291.70796,526.56023 294.74713,526.00764 C 294.81615,526.00766 296.37424,525.62877 299.41342,524.79989 C 300.38037,524.52363 301.23379,524.23857 301.9936,524.03133 C 302.75337,523.82414 303.45802,523.6347 304.07971,523.42746 z"
           id="path2572" />
        <path
           style="font-size:17.26787758000000039px;font-style:normal;font-weight:normal;fill:#23aeff;stroke:none;stroke-width:1px;stroke-linecap:butt;stroke-linejoin:miter;stroke-opacity:1;font-family:Bitstream Vera Sans;fill-opacity:1"
           d="M 378.22481,529.53563 L 363.09815,526.84184 C 361.78575,529.88101 359.98989,532.1949 357.71058,533.78353 C 355.63839,535.30311 353.42811,536.0629 351.07971,536.06289 C 347.41889,536.0629 344.86325,534.99229 343.41277,532.85106 C 341.34061,530.50265 340.85711,526.66918 341.96227,521.35066 C 342.99832,516.7229 344.86325,513.3384 347.55706,511.19714 C 349.97454,509.05597 352.97914,507.98536 356.5709,507.98532 C 359.1265,507.98536 361.16411,508.71061 362.68372,510.16107 C 364.27232,511.61161 364.99757,513.442 364.85948,515.65226 L 380.19335,512.75125 C 380.05515,509.85029 379.39897,507.26011 378.22481,504.98071 C 377.11961,502.70139 375.49643,500.80193 373.35527,499.28231 C 369.7635,496.65764 364.99757,495.34529 359.05747,495.34523 C 350.56164,495.34529 343.41275,497.76279 337.61077,502.59774 C 331.80875,507.43279 328.07889,513.99457 326.42118,522.28312 C 324.76346,530.64079 325.90314,537.16804 329.84022,541.86489 C 331.77421,544.2824 334.26078,546.04372 337.29995,547.14886 C 340.33907,548.25401 343.96532,548.80658 348.17871,548.80658 C 355.01675,548.80658 360.81875,547.39061 365.58473,544.55868 C 370.76504,541.58861 374.9784,536.58093 378.22481,529.53563"
           id="path2535" />
        <path
           style="font-size:17.26787758000000039px;font-style:normal;font-weight:normal;fill:#23aeff;stroke:none;stroke-width:1px;stroke-linecap:butt;stroke-linejoin:miter;stroke-opacity:1;font-family:Bitstream Vera Sans;fill-opacity:1"
           d="M 416.36325,546.73443 L 415.638,534.30156 C 413.28953,535.47579 411.35553,536.23558 409.836,536.58092 C 408.5236,536.71908 407.52207,536.5464 406.83139,536.06289 C 406.34785,535.78661 406.14064,535.0959 406.20974,533.99074 L 407.34942,528.29234 L 411.90814,505.91317 L 423.61576,505.91317 L 425.48069,496.17409 L 413.77307,496.17409 L 416.88129,480.94382 L 402.58349,480.94382 L 399.47527,496.17409 L 387.45683,496.17409 L 385.5919,505.91317 L 397.61034,505.91317 L 391.60112,535.85567 C 390.91039,539.10204 391.01399,541.65769 391.91194,543.52261 C 392.74078,545.31847 394.29489,546.76897 396.57427,547.87411 C 398.30103,548.91019 401.09842,549.35915 404.96646,549.22101 C 409.11071,549.15194 412.90964,548.32308 416.36325,546.73443"
           id="path2533"
           sodipodi:nodetypes="ccccccccccccccccccccc" />
        <path
           style="font-size:17.26787758000000039px;font-style:normal;font-weight:normal;fill:#23aeff;stroke:none;stroke-width:1px;stroke-linecap:butt;stroke-linejoin:miter;stroke-opacity:1;font-family:Bitstream Vera Sans;fill-opacity:1"
           d="M 439.6882,548.08133 L 450.04029,496.18921 L 435.22445,496.22842 L 424.87236,548.08133 L 439.6882,548.08133"
           id="path2531" />
        <path
           style="font-size:17.26787758000000039px;font-style:normal;font-weight:normal;fill:#23aeff;stroke:none;stroke-width:1px;stroke-linecap:butt;stroke-linejoin:miter;stroke-opacity:1;font-family:Bitstream Vera Sans;fill-opacity:1"
           d="M 519.55321,496.2777 L 502.97605,496.2777 L 481.52934,530.05367 L 473.24076,496.2777 L 456.45639,496.2777 L 470.75419,548.08133 L 484.84478,548.08133 L 519.55321,496.2777"
           id="path2527" />
        <path
           style="font-size:17.26787758000000039px;font-style:normal;font-weight:normal;fill:#23aeff;stroke:none;stroke-width:1px;stroke-linecap:butt;stroke-linejoin:miter;stroke-opacity:1;font-family:Bitstream Vera Sans;fill-opacity:1"
           d="M 530.1422,548.08133 L 540.49429,496.26763 L 525.71766,496.26763 L 515.32636,548.08133 L 530.1422,548.08133"
           id="path2525" />
        <path
           style="font-size:17.26787758000000039px;font-style:normal;font-weight:normal;fill:#23aeff;stroke:none;stroke-width:1px;stroke-linecap:butt;stroke-linejoin:miter;stroke-opacity:1;font-family:Bitstream Vera Sans;fill-opacity:1"
           d="M 527.40459,483.41898 C 526.92107,485.76748 527.3355,487.73601 528.64788,489.32459 C 530.02929,490.9133 531.92875,491.70762 534.34628,491.70756 C 536.76375,491.70762 538.97404,490.9133 540.97714,489.32459 C 542.98018,487.73601 544.22347,485.76748 544.707,483.41898 C 545.19047,481.07062 544.74151,479.10208 543.36011,477.51336 C 541.97865,475.85573 540.07918,475.02687 537.66171,475.02679 C 535.24418,475.02687 533.0339,475.85573 531.03085,477.51336 C 529.09682,479.10208 527.88807,481.07062 527.40459,483.41898"
           id="path2523" />
        <path
           style="font-size:17.26787758000000039px;font-style:normal;font-weight:normal;fill:#23aeff;stroke:none;stroke-width:1px;stroke-linecap:butt;stroke-linejoin:miter;stroke-opacity:1;font-family:Bitstream Vera Sans;fill-opacity:1"
           d="M 575.78114,546.73443 L 575.05589,534.30156 C 572.70742,535.47579 570.77342,536.23558 569.25388,536.58092 C 567.94149,536.71908 566.93995,536.5464 566.24927,536.06289 C 565.76574,535.78661 565.55852,535.0959 565.62762,533.99074 L 566.7673,528.29234 L 571.32602,505.91317 L 583.03364,505.91317 L 584.89858,496.17409 L 573.19095,496.17409 L 576.29917,480.94382 L 562.00137,480.94382 L 558.89315,496.17409 L 546.87471,496.17409 L 545.00978,505.91317 L 557.02822,505.91317 L 551.019,535.85567 C 550.32827,539.10204 550.43188,541.65769 551.32982,543.52261 C 552.15866,545.31847 553.71277,546.76897 555.99215,547.87411 C 557.71891,548.91019 560.51631,549.35915 564.38434,549.22101 C 568.52859,549.15194 572.32752,548.32308 575.78114,546.73443"
           id="path2521" />
        <path
           style="font-size:17.26787758000000039px;font-style:normal;font-weight:normal;fill:#23aeff;stroke:none;stroke-width:1px;stroke-linecap:butt;stroke-linejoin:miter;stroke-opacity:1;font-family:Bitstream Vera Sans;fill-opacity:1"
           d="M 648.63006,496.17409 L 630.91322,496.17409 L 616.09738,525.49495 L 608.11962,496.2777 L 591.02442,496.2777 L 605.21862,542.59014 C 603.62995,545.49115 601.83409,547.49422 599.83104,548.59937 C 598.03516,549.35915 595.44498,549.73904 592.0605,549.73905 L 590.50639,549.73905 C 589.9538,549.66997 589.26309,549.63544 588.43424,549.63544 C 587.60538,549.63544 586.60384,549.6009 585.42963,549.53183 L 584.49717,561.13584 C 588.71052,561.48119 592.88934,561.48119 597.03365,561.13584 C 601.59234,560.79047 604.87324,560.09976 606.87634,559.0637 C 608.74124,558.3039 610.53709,556.95701 612.26391,555.02302 C 613.02366,554.26322 613.81799,553.29622 614.64688,552.12201 C 615.54477,551.01687 616.47724,549.77358 617.44428,548.39215 L 648.63006,496.17409"
           id="text2511" />
      </g>
      <path
         id="path2549"
         d="M 464.29928,371.53968 C 465.12493,367.45058 464.29924,363.95124 461.82222,361.04165 C 459.26649,358.09279 455.64919,356.61836 450.97033,356.61832 C 445.81959,356.61836 441.45524,358.09279 437.87727,361.04165 C 434.5352,363.75465 432.43166,367.25399 431.56667,371.53968 C 430.70166,375.90404 431.37007,379.4427 433.5719,382.15566 C 435.89169,385.02591 439.68591,386.46104 444.9546,386.46104 C 450.38052,386.46104 454.82351,385.02591 458.28356,382.15566 C 461.38968,379.52133 463.39492,375.98268 464.29928,371.53968"
         style="font-size:17.26787758px;font-style:normal;font-weight:normal;fill:#000000;fill-opacity:1;stroke:none;stroke-width:1px;stroke-linecap:butt;stroke-linejoin:miter;stroke-opacity:1;font-family:Bitstream Vera Sans" />
      <g
         transform="matrix(0.5692428,0,0,0.5692428,313.16104,275.52071)"
         id="g2351">
        <path
           sodipodi:type="arc"
           style="fill:#b3b3b3;fill-opacity:1;stroke:none"
           id="path6520"
           sodipodi:cx="218.19295"
           sodipodi:cy="320.00159"
           sodipodi:rx="20.203051"
           sodipodi:ry="20.203051"
           d="M 238.396,320.00159 A 20.203051,20.203051 0 1 1 197.9899,320.00159 A 20.203051,20.203051 0 1 1 238.396,320.00159 z"
           transform="matrix(0.3753161,0.117841,-0.1203031,0.4252509,196.66772,-25.691546)" />
        <g
           id="g2338">
          <rect
             ry="5"
             rx="5"
             transform="matrix(0.9802851,0.1975885,-0.1987901,0.9800421,0,0)"
             y="91.402679"
             x="257.94556"
             height="35.97403"
             width="11.449069"
             id="rect6574"
             style="fill:#b3b3b3;fill-opacity:1;stroke:none" />
          <g
             id="g2334">
            <rect
               style="fill:#b3b3b3;fill-opacity:1;stroke:none"
               id="rect2280"
               width="9.4262352"
               height="25.942879"
               x="13.466545"
               y="288.668"
               rx="7"
               ry="7"
               transform="matrix(0.640735,-0.7677621,0.7665815,0.642147,0,0)" />
            <rect
               style="fill:#b3b3b3;fill-opacity:1;stroke:none"
               id="rect2405"
               width="8.7641554"
               height="24.067652"
               x="303.09732"
               y="44.413395"
               rx="5"
               ry="5"
               transform="matrix(0.8857209,0.4642182,-0.4670589,0.8842262,0,0)" />
          </g>
          <g
             transform="matrix(0.6334221,7.6334499e-2,-7.6334499e-2,0.6334221,130.01987,-99.49129)"
             id="g6510"
             style="fill:#b3b3b3">
            <rect
               transform="matrix(-0.4194935,-0.9077583,0.9091763,-0.4164114,0,0)"
               ry="5"
               rx="5"
               y="28.857542"
               x="-445.27274"
               height="39.402618"
               width="11.968059"
               id="rect6502"
               style="fill:#b3b3b3;fill-opacity:1;stroke:none" />
            <rect
               style="fill:#b3b3b3;fill-opacity:1;stroke:none"
               id="rect6508"
               width="11.967381"
               height="26.524721"
               x="-356.60016"
               y="-275.9216"
               rx="7"
               ry="7"
               transform="matrix(-0.9426833,-0.3336887,0.3273968,-0.9448869,0,0)" />
          </g>
          <rect
             style="fill:#b3b3b3;fill-opacity:1;stroke:none"
             id="rect2282"
             width="9.4266491"
             height="49.401756"
             x="283.35858"
             y="24.316704"
             rx="5"
             ry="5"
             transform="matrix(0.8655933,0.5007477,-0.5054339,0.8628653,0,0)" />
          <g
             id="g2276">
            <rect
               transform="matrix(0.9880111,0.1543828,-0.1477928,0.9890184,0,0)"
               ry="4.9999995"
               rx="5"
               y="124.08155"
               x="237.5658"
               height="16.922911"
               width="7.6352506"
               id="rect6518"
               style="fill:#b3b3b3;fill-opacity:1;stroke:none" />
            <rect
               style="fill:#b3b3b3;fill-opacity:1;stroke:none"
               id="rect2274"
               width="7.6357217"
               height="27.192616"
               x="256.36212"
               y="-107.91009"
               rx="5"
               ry="5"
               transform="matrix(0.5794042,0.8150403,-0.8175601,0.5758432,0,0)" />
          </g>
        </g>
      </g>
      <path
         style="font-size:6.5px;font-style:normal;font-variant:normal;font-weight:normal;font-stretch:normal;text-align:start;line-height:125%;writing-mode:lr-tb;text-anchor:start;fill:#000000;fill-opacity:1;stroke:none;stroke-width:1px;stroke-linecap:butt;stroke-linejoin:miter;stroke-opacity:1;font-family:Arial;-inkscape-font-specification:Arial"
         d="M 675.86188,385.11536 L 675.86188,381.0116 L 674.32892,381.0116 L 674.32892,380.46252 L 678.01691,380.46252 L 678.01691,381.0116 L 676.4776,381.0116 L 676.4776,385.11536 L 675.86188,385.11536 M 678.63263,385.11536 L 678.63263,380.46252 L 679.55939,380.46252 L 680.66071,383.75696 C 680.76227,384.06376 680.83632,384.29334 680.88287,384.44568 C 680.93577,384.27641 681.01829,384.02779 681.13043,383.69983 L 682.24445,380.46252 L 683.07281,380.46252 L 683.07281,385.11536 L 682.47931,385.11536 L 682.47931,381.22107 L 681.12726,385.11536 L 680.57184,385.11536 L 679.22614,381.15442 L 679.22614,385.11536 L 678.63263,385.11536"
         id="text2469" />
      <path
         id="path2529"
         d="M 562.21495,349.40687 C 561.93971,350.74374 562.17562,351.86431 562.92268,352.76859 C 563.70904,353.67296 564.7903,354.12512 566.16646,354.12508 C 567.54259,354.12512 568.80078,353.67296 569.94103,352.76859 C 571.08125,351.86431 571.78898,350.74374 572.06423,349.40687 C 572.33944,348.07008 572.08387,346.9495 571.29751,346.04514 C 570.51113,345.10154 569.42987,344.62972 568.05375,344.62967 C 566.67758,344.62972 565.41939,345.10154 564.27917,346.04514 C 563.17824,346.9495 562.49017,348.07008 562.21495,349.40687"
         style="font-size:17.26787758000000039px;font-style:normal;font-weight:normal;fill:#23aeff;fill-opacity:1;stroke:none;stroke-width:1px;stroke-linecap:butt;stroke-linejoin:miter;stroke-opacity:1;font-family:Bitstream Vera Sans" />
    </g>
  </g>
</svg>
