<?xml version="1.0" encoding="UTF-8" standalone="no"?>
<!-- Created with Inkscape (http://www.inkscape.org/) -->
<svg
   xmlns:dc="http://purl.org/dc/elements/1.1/"
   xmlns:cc="http://creativecommons.org/ns#"
   xmlns:rdf="http://www.w3.org/1999/02/22-rdf-syntax-ns#"
   xmlns:svg="http://www.w3.org/2000/svg"
   xmlns="http://www.w3.org/2000/svg"
   xmlns:sodipodi="http://sodipodi.sourceforge.net/DTD/sodipodi-0.dtd"
   xmlns:inkscape="http://www.inkscape.org/namespaces/inkscape"
   width="580"
   height="220"
   id="svg2"
   sodipodi:version="0.32"
   inkscape:version="0.46"
   version="1.0"
   sodipodi:docname="testimonials-bg.svg"
   inkscape:output_extension="org.inkscape.output.svg.inkscape"
   inkscape:export-filename="/home/ryan/Workspace/proactiv/templates/proactivity/testimonials-bg.png"
   inkscape:export-xdpi="90"
   inkscape:export-ydpi="90">
  <defs
     id="defs4">
    <inkscape:perspective
       sodipodi:type="inkscape:persp3d"
       inkscape:vp_x="0 : 526.18109 : 1"
       inkscape:vp_y="0 : 1000 : 0"
       inkscape:vp_z="744.09448 : 526.18109 : 1"
       inkscape:persp3d-origin="372.04724 : 350.78739 : 1"
       id="perspective10" />
  </defs>
  <sodipodi:namedview
     id="base"
     pagecolor="#ffffff"
     bordercolor="#666666"
     borderopacity="1.0"
     gridtolerance="10000"
     guidetolerance="10"
     objecttolerance="10"
     inkscape:pageopacity="1"
     inkscape:pageshadow="2"
     inkscape:zoom="0.98994949"
     inkscape:cx="-29.762381"
     inkscape:cy="98.611912"
     inkscape:document-units="px"
     inkscape:current-layer="layer1"
     showgrid="false"
     inkscape:window-width="1680"
     inkscape:window-height="975"
     inkscape:window-x="0"
     inkscape:window-y="25" />
  <metadata
     id="metadata7">
    <rdf:RDF>
      <cc:Work
         rdf:about="">
        <dc:format>image/svg+xml</dc:format>
        <dc:type
           rdf:resource="http://purl.org/dc/dcmitype/StillImage" />
      </cc:Work>
    </rdf:RDF>
  </metadata>
  <g
     inkscape:label="Layer 1"
     inkscape:groupmode="layer"
     id="layer1">
    <rect
       style="opacity:1;fill:#ffffff;fill-opacity:1;stroke:#cccccc;stroke-width:1.11079073;stroke-miterlimit:4;stroke-dasharray:4.44316276, 4.44316276;stroke-dashoffset:0;stroke-opacity:1"
       id="rect2436"
       width="578.88922"
       height="218.88921"
       x="0.55539536"
       y="0.5553987"
       inkscape:export-xdpi="90"
       inkscape:export-ydpi="90" />
    <g
       id="g2424"
       transform="matrix(-1.5592053,0,0,-1.5592053,269.49707,185.52082)"
       style="fill:none;stroke:#cccccc;stroke-opacity:1">
      <path
         style="font-size:144px;font-style:normal;font-variant:normal;font-weight:bold;font-stretch:normal;text-align:start;line-height:125%;writing-mode:lr-tb;text-anchor:start;fill:none;fill-opacity:1;stroke:#cccccc;stroke-width:1px;stroke-linecap:butt;stroke-linejoin:miter;stroke-opacity:1;font-family:Caslon;-inkscape-font-specification:Caslon Bold"
         d="M 135.32115,52.522294 C 132.82513,59.050366 128.40913,63.466362 122.07315,65.770294 C 121.11314,66.154359 120.15314,66.442359 119.19315,66.634294 L 117.17715,64.186294 C 119.67314,63.610362 121.73714,62.074363 123.36915,59.578294 C 124.13714,58.522367 124.52114,57.514368 124.52115,56.554294 L 124.08915,54.682294 C 123.99314,54.490371 123.89714,54.346371 123.80115,54.250294 C 121.30514,52.810372 120.05714,50.458375 120.05715,47.194294 C 120.05714,43.450382 121.59314,40.810384 124.66515,39.274294 C 125.81713,38.794386 127.06513,38.554387 128.40915,38.554294 C 128.69713,38.554387 128.93713,38.554387 129.12915,38.554294 C 133.25713,38.842386 135.80112,40.906384 136.76115,44.746294 L 136.90515,48.058294 C 136.80912,49.786375 136.28112,51.274374 135.32115,52.522294"
         id="path2426" />
      <path
         id="path2428"
         d="M 155.32115,52.522294 C 152.82513,59.050366 148.40913,63.466362 142.07315,65.770294 C 141.11314,66.154359 140.15314,66.442359 139.19315,66.634294 L 137.17715,64.186294 C 139.67314,63.610362 141.73714,62.074363 143.36915,59.578294 C 144.13714,58.522367 144.52114,57.514368 144.52115,56.554294 L 144.08915,54.682294 C 143.99314,54.490371 143.89714,54.346371 143.80115,54.250294 C 141.30514,52.810372 140.05714,50.458375 140.05715,47.194294 C 140.05714,43.450382 141.59314,40.810384 144.66515,39.274294 C 145.81713,38.794386 147.06513,38.554387 148.40915,38.554294 C 148.69713,38.554387 148.93713,38.554387 149.12915,38.554294 C 153.25713,38.842386 155.80112,40.906384 156.76115,44.746294 L 156.90515,48.058294 C 156.80912,49.786375 156.28112,51.274374 155.32115,52.522294"
         style="font-size:144px;font-style:normal;font-variant:normal;font-weight:bold;font-stretch:normal;text-align:start;line-height:125%;writing-mode:lr-tb;text-anchor:start;fill:none;fill-opacity:1;stroke:#cccccc;stroke-width:1px;stroke-linecap:butt;stroke-linejoin:miter;stroke-opacity:1;font-family:Caslon;-inkscape-font-specification:Caslon Bold" />
    </g>
    <g
       transform="matrix(3.6649827,0,0,3.6649827,-7.5978424,-95.332927)"
       id="g2430"
       style="fill:none;fill-opacity:1;stroke:#cccccc;stroke-width:0.27244601;stroke-miterlimit:4;stroke-dasharray:none;stroke-opacity:1">
      <path
         id="path2432"
         d="M 135.32115,52.522294 C 132.82513,59.050366 128.40913,63.466362 122.07315,65.770294 C 121.11314,66.154359 120.15314,66.442359 119.19315,66.634294 L 117.17715,64.186294 C 119.67314,63.610362 121.73714,62.074363 123.36915,59.578294 C 124.13714,58.522367 124.52114,57.514368 124.52115,56.554294 L 124.08915,54.682294 C 123.99314,54.490371 123.89714,54.346371 123.80115,54.250294 C 121.30514,52.810372 120.05714,50.458375 120.05715,47.194294 C 120.05714,43.450382 121.59314,40.810384 124.66515,39.274294 C 125.81713,38.794386 127.06513,38.554387 128.40915,38.554294 C 128.69713,38.554387 128.93713,38.554387 129.12915,38.554294 C 133.25713,38.842386 135.80112,40.906384 136.76115,44.746294 L 136.90515,48.058294 C 136.80912,49.786375 136.28112,51.274374 135.32115,52.522294"
         style="font-size:144px;font-style:normal;font-variant:normal;font-weight:bold;font-stretch:normal;text-align:start;line-height:125%;writing-mode:lr-tb;text-anchor:start;fill:none;fill-opacity:1;stroke:#cccccc;stroke-width:0.27244601;stroke-linecap:butt;stroke-linejoin:miter;stroke-miterlimit:4;stroke-dasharray:none;stroke-opacity:1;font-family:Caslon;-inkscape-font-specification:Caslon Bold" />
      <path
         style="font-size:144px;font-style:normal;font-variant:normal;font-weight:bold;font-stretch:normal;text-align:start;line-height:125%;writing-mode:lr-tb;text-anchor:start;fill:none;fill-opacity:1;stroke:#cccccc;stroke-width:0.27244601;stroke-linecap:butt;stroke-linejoin:miter;stroke-miterlimit:4;stroke-dasharray:none;stroke-opacity:1;font-family:Caslon;-inkscape-font-specification:Caslon Bold"
         d="M 155.32115,52.522294 C 152.82513,59.050366 148.40913,63.466362 142.07315,65.770294 C 141.11314,66.154359 140.15314,66.442359 139.19315,66.634294 L 137.17715,64.186294 C 139.67314,63.610362 141.73714,62.074363 143.36915,59.578294 C 144.13714,58.522367 144.52114,57.514368 144.52115,56.554294 L 144.08915,54.682294 C 143.99314,54.490371 143.89714,54.346371 143.80115,54.250294 C 141.30514,52.810372 140.05714,50.458375 140.05715,47.194294 C 140.05714,43.450382 141.59314,40.810384 144.66515,39.274294 C 145.81713,38.794386 147.06513,38.554387 148.40915,38.554294 C 148.69713,38.554387 148.93713,38.554387 149.12915,38.554294 C 153.25713,38.842386 155.80112,40.906384 156.76115,44.746294 L 156.90515,48.058294 C 156.80912,49.786375 156.28112,51.274374 155.32115,52.522294"
         id="path2434" />
    </g>
  </g>
</svg>
